first_analysis
…
merged_data

## # A tibble: 10,742 x 21
##    date         day month  year new_cases new_deaths country geoid code 
##    <date>     <int> <int> <int>     <int>      <int> <chr>   <fct> <chr>
##  1 2019-12-31    31    12  2019         0          0 Afghan AF    AFG  
##  2 2020-01-01     1     1  2020         0          0 Afghan AF    AFG  
##  3 2020-01-02     2     1  2020         0          0 Afghan AF    AFG  
##  4 2020-01-03     3     1  2020         0          0 Afghan AF    AFG  
##  5 2020-01-04     4     1  2020         0          0 Afghan AF    AFG  
##  6 2020-01-05     5     1  2020         0          0 Afghan AF    AFG  
##  7 2020-01-06     6     1  2020         0          0 Afghan AF    AFG  
##  8 2020-01-07     7     1  2020         0          0 Afghan AF    AFG  
##  9 2020-01-08     8     1  2020         0          0 Afghan AF    AFG  
## 10 2020-01-09     9     1  2020         0          0 Afghan AF    AFG  
## #  with 10,732 more rows, and 12 more variables: pop_2018 <int>,
## #   gdp_2018 <dbl>, health_exp_gdp_2016 <dbl>, out_pocket_exp_2016 <dbl>,
## #   private_exp_pp_2016 <dbl>, gini_2017 <dbl>, latin_america <dbl>,
## #   south_america <dbl>, running_sum <int>, cases_pop <dbl>, deaths_pop <dbl>,
## #   running_sum_pop <dbl>

c <- merged_data%>% 
  filter(country == "United_States_of_America")

c

## # A tibble: 106 x 21
##    date         day month  year new_cases new_deaths country geoid code 
##    <date>     <int> <int> <int>     <int>      <int> <chr>   <fct> <chr>
##  1 2019-12-31    31    12  2019         0          0 United US    USA  
##  2 2020-01-01     1     1  2020         0          0 United US    USA  
##  3 2020-01-02     2     1  2020         0          0 United US    USA  
##  4 2020-01-03     3     1  2020         0          0 United US    USA  
##  5 2020-01-04     4     1  2020         0          0 United US    USA  
##  6 2020-01-05     5     1  2020         0          0 United US    USA  
##  7 2020-01-06     6     1  2020         0          0 United US    USA  
##  8 2020-01-07     7     1  2020         0          0 United US    USA  
##  9 2020-01-08     8     1  2020         0          0 United US    USA  
## 10 2020-01-09     9     1  2020         0          0 United US    USA  
## #  with 96 more rows, and 12 more variables: pop_2018 <int>, gdp_2018 <dbl>,
## #   health_exp_gdp_2016 <dbl>, out_pocket_exp_2016 <dbl>,
## #   private_exp_pp_2016 <dbl>, gini_2017 <dbl>, latin_america <dbl>,
## #   south_america <dbl>, running_sum <int>, cases_pop <dbl>, deaths_pop <dbl>,
## #   running_sum_pop <dbl>
